UFO Sightings
…
class: inverse, center, middle

##1.The most common shape of UFO

---
We use shape variable to solve this question

```
## # A tibble: 30 × 2
##    shape        n
##    <chr>    <int>
##  1 light    17872
##  2 triangle  8489
##  3 circle    8453
##  4 fireball  6562
##  5 unknown   6319
##  6 other     6247
##  7 disk      6005
##  8 sphere    5755
##  9 oval      4119
## 10 <NA>      3118
## # … with 20 more rows
```
…
```
## # A tibble: 15,653 × 3
##    city        state number
##    <chr>       <chr>  <int>
##  1 seattle     wa       568
##  2 phoenix     az       484
##  3 las vegas   nv       389
##  4 los angeles ca       372
##  5 san diego   ca       358
##  6 portland    or       351
##  7 houston     tx       313
##  8 chicago     il       294
##  9 tucson      az       258
## 10 miami       fl       247
## # … with 15,643 more rows
```
…
---
In this question, variable "latitude" is used to discuss the question.
We will first look at the sightings happened in equator.

```
## # A tibble: 1 × 2
##   latitude     n
##   <chr>    <int>
## 1 0         1494
```
Then look at the sightings in southernhimisphere

```
## # A tibble: 502 × 2
##    latitude       n
##    <chr>      <int>
##  1 -33.861481    89
##  2 -37.813938    74
##  3 -31.95224     53
##  4 -27.47101     48
##  5 -34.928661    41
##  6 -14.599413    33
##  7 -36.84846     32
##  8 -25.274398    20
##  9 -35.27603     18
## 10 -33.924868    16
## # … with 492 more rows
```

---
Then look at the sightings in northernhimisphere.

```
## # A tibble: 19,069 × 2
##    latitude       n
##    <chr>      <int>
##  1 47.6063889   627
##  2 40.7141667   601
##  3 33.4483333   511
##  4 36.1750000   417
##  5 34.0522222   414
##  6 32.7152778   384
##  7 45.5236111   362
##  8 41.8500000   336
##  9 29.7630556   328
## 10 32.2216667   264
## # … with 19,059 more rows
```
…
